{
    "http-basic": {
        "repo.magento.com": {
            "username": "f59deb619ab2b7b33ffa4ffb02aa60e1",
            "password": "ab963efc85df86038b88bb6c815f7668"
        },
        "repo.mageplaza.com": {
            "username": "mhj1l7yb81g07kblpzw68l25aoaioxp3tklh634m",
            "password": "ix076j1tq25f7pip9gsub3fvltqy9ziyw6is6ma1"
        },
        "composer.magepal.com": {
            "username": "HjYA9HlPxUeAli4IKDidMBV5NQXSlsd5",
            "password": "342j34nCorvf3VQUPRyOdlKGbprNM0aG"
        }
    }
}
